==================
Build Notes
==================
1.版本目的:
提高pm8941_L4电压到1.3V
2.修改的重大问题点:
提高pm8941_L4电压到1.3V
3.测试重点:
提高pm8941_L4电压到1.3V
4.应用数据库是否改变:
no


==================
Build Info
==================
Build Machine: BIANYI1-DESKTOP
Target: -opt=TARGET_BUILD_VARIANT=user

==================
Release Location
==================
FTP://18.8.8.2/software_release/NBL8905A/NBL8905A01_A_T1109.zip

==================
Software Version Description
==================


==================
CR List
==================
[Repository URL]: http://192.168.110.97/svn/modem_qc_kk_qct8974/trunk
[Tag        URL]: http://192.168.110.97/svn/modem_qc_kk_qct8974/tags/TAG_NBL8905A_T1109
[Current    Tag]: TAG_NBL8905A_T1109 (385)
[Previous   Tag]: TAG_NBL8905A_T1108 (386)
CR01459251      Opened     wudp       解决NBL8905项目GPS不能定位问题

[Repository URL]: http://192.168.110.97/svn/packages_qc_modem/trunk
[Tag        URL]: http://192.168.110.97/svn/packages_qc_modem/tags/TAG_NBL8905A_T1109
[Current    Tag]: TAG_NBL8905A_T1109 (2980)
[Previous   Tag]: TAG_NBL8905A_T1108 (1)

